{
  "pagination": {
    "current_page": 2,
    "total_pages": 2,
    "total": 3,
    "per_page": 2,
    "large_set": false
  },
  "dns_zones": [
    {
      "id": "dnszone_qr9KPhSwkGNh7IMb",
      "name": "test-3.example.com",
      "default_ttl": 3600
    }
  ]
}