{
  "pagination": {
    "current_page": 1,
    "total_pages": 2,
    "total": 3,
    "per_page": 2,
    "large_set": false
  },
  "dns_zones": [
    {
      "id": "dnszone_k75eFc4UBOgeE5Zy",
      "name": "test1.example.com",
      "default_ttl": 3600
    },
    {
      "id": "dnszone_lwz66kyviwCQyqQc",
      "name": "test-2.example.com",
      "default_ttl": 3600
    }
  ]
}