{
  "pagination": {
    "current_page": 2,
    "total_pages": 2,
    "total": 3,
    "per_page": 2,
    "large_set": false
  },
  "load_balancers": [
    {
      "id": "lb_WSjTHQDJ6jOjzXVy",
      "name": "assets",
      "resource_type": "virtual_machine_groups"
    }
  ]
}
