{
  "pagination": {
    "current_page": 2,
    "total_pages": 2,
    "total": 3,
    "per_page": 2,
    "large_set": false
  },
  "network_speed_profiles": [
    {
      "id": "nsp_m2yvaph9SoMFbupJ",
      "name": "10 Mbps",
      "permalink": "10mbps"
    }
  ]
}
