{
  "pagination": {
    "current_page": 1,
    "total_pages": 2,
    "total": 3,
    "per_page": 2,
    "large_set": false
  },
  "virtual_machine_packages": [
    {
      "id": "vmpkg_XdNPhGXvyt1dnDts",
      "name": "X-Small",
      "permalink": "xsmall"
    },
    {
      "id": "vmpkg_YlqvfsKqZJODtvjG",
      "name": "Small",
      "permalink": "small"
    }
  ]
}
