{
  "pagination": {
    "current_page": 2,
    "total_pages": 2,
    "total": 3,
    "per_page": 2,
    "large_set": false
  },
  "virtual_machines": [
    {
      "id": "vm_1kpkjQeMEI43tztr",
      "name": "popular-blue-kumquat",
      "hostname": "popular-blue-kumquat"
    }
  ]
}
