{
  "pagination": {
    "current_page": 2,
    "total_pages": 2,
    "total": 3,
    "per_page": 2,
    "large_set": false
  },
  "virtual_machine_packages": [
    {
      "id": "vmpkg_y7NqMMa9TYx0g1Si",
      "name": "Medium",
      "permalink": "medium"
    }
  ]
}
