{
  "pagination": {
    "current_page": 1,
    "total_pages": 2,
    "total": 3,
    "per_page": 2,
    "large_set": false
  },
  "load_balancers": [
    {
      "id": "lb_7vClpn0rlUegGPDS",
      "name": "web",
      "resource_type": "tags"
    },
    {
      "id": "lb_sESSo8rKfcL79D3y",
      "name": "db",
      "resource_type": "virtual_machines"
    }
  ]
}
