{
  "pagination": {
    "current_page": 1,
    "total_pages": 2,
    "total": 3,
    "per_page": 2,
    "large_set": false
  },
  "virtual_machines": [
    {
      "id": "vm_t8yomYsG4bccKw5D",
      "name": "bitter-beautiful-mango",
      "hostname": "bitter-beautiful-mango",
      "fqdn": "bitter-beautiful-mango.test.kpult.com",
      "created_at": 1579883611,
      "zone": {
        "id": "zone_FZ7ZpVppByTepLqf",
        "name": "Main Zone",
        "permalink": "main",
        "data_center": {
          "id": "loc_25d48761871e4bf",
          "name": "Shirebury",
          "permalink": "shirebury"
        }
      },
      "package": {
        "name": "Small"
      },
      "ip_addresses": [
        {
          "address": "31.228.217.44"
        }
      ]
    },
    {
      "id": "vm_h7bzdXXHa0GvJYMc",
      "name": "popular-shapely-tank",
      "hostname": "popular-shapely-tank",
      "fqdn": "popular-shapely-tank.test.kpult.com",
      "created_at": 1568651782,
      "zone": {
        "id": "zone_FZ7ZpVppByTepLqf",
        "name": "Main Zone",
        "permalink": "main",
        "data_center": {
          "id": "loc_25d48761871e4bf",
          "name": "Shirebury",
          "permalink": "shirebury"
        }
      },
      "package": {
        "name": "Medium"
      },
      "ip_addresses": [
        {
          "address": "188.56.184.51"
        }
      ]
    }
  ]
}
