{
  "pagination": {
    "current_page": 2,
    "total_pages": 2,
    "total": 3,
    "per_page": 2,
    "large_set": false
  },
  "virtual_machines": [
    {
      "id": "vm_1kpkjQeMEI43tztr",
      "name": "popular-blue-kumquat",
      "hostname": "popular-blue-kumquat",
      "fqdn": "popular-blue-kumquat.test.kpult.com",
      "created_at": 1563381453,
      "zone": {
        "id": "zone_FZ7ZpVppByTepLqf",
        "name": "Main Zone",
        "permalink": "main",
        "data_center": {
          "id": "loc_25d48761871e4bf",
          "name": "Shirebury",
          "permalink": "shirebury"
        }
      },
      "package": {
        "name": "Small"
      },
      "ip_addresses": [
        {
          "address": "106.127.29.51"
        }
      ]
    }
  ]
}
