{
  "pagination": {
    "current_page": 2,
    "total_pages": 2,
    "total": 3,
    "per_page": 2,
    "large_set": false
  },
  "virtual_machine_network_interfaces": [
    {
      "id": "vmnet_19JWZO4oHJ51J79y",
      "name": "Internal Network on bitter-beautiful-mango"
    }
  ]
}
