{
  "pagination": {
    "current_page": 1,
    "total_pages": 2,
    "total": 3,
    "per_page": 2,
    "large_set": false
  },
  "virtual_machines": [
    {
      "id": "vm_t8yomYsG4bccKw5D",
      "name": "bitter-beautiful-mango",
      "hostname": "bitter-beautiful-mango"
    },
    {
      "id": "vm_h7bzdXXHa0GvJYMc",
      "name": "popular-shapely-tank",
      "hostname": "popular-shapely-tank"
    }
  ]
}
